<svg xmlns="http://www.w3.org/2000/svg" xmlns:xlink="http://www.w3.org/1999/xlink" width="246.832" height="62.308" viewBox="0 0 246.832 62.308">
  <defs>
    <clipPath id="clip-path">
      <rect id="Rectangle_18" data-name="Rectangle 18" width="246.832" height="62.308" transform="translate(0 0)" fill="#111"/>
    </clipPath>
  </defs>
  <g id="Group_24" data-name="Group 24" transform="translate(0 0)">
    <g id="Group_23" data-name="Group 23" clip-path="url(#clip-path)">
      <path id="Path_30" data-name="Path 30" d="M246.707,12.119l-6.046.775,6.171-.858c.021-2.263-1.136-3.383-3.433-3.368-.272-.475-.6-.677-1.072-.232h-1.48a1.525,1.525,0,0,0-1.809.049,17.108,17.108,0,0,0-4.78.242c-1.528-.678-3.039.234-4.578.039a52.529,52.529,0,0,0-6.11-.29c-5.335-.05-10.668-.187-16-.282-2.245-.039-4.492-.305-6.723-.291-4.7.031-9.38-.492-14.081-.4a22.569,22.569,0,0,1-2.508-.057c-4.1-.364-8.233-.529-12.338-.647-4.834-.14-9.655-.509-14.49-.634-7.029-.182-14.053-.632-21.073-1.059-2.783-.168-5.569.213-8.323-.038-3.725-.339-7.457-.238-11.181-.469-1.977-.123-3.967-.148-5.952-.179-6.784-.105-13.563-.49-20.345-.73-5.08-.178-10.168-.181-15.24-.472-6.161-.354-12.3-1.08-18.466-1.349-3.741-.163-7.463-.53-11.2-.736C36.751.646,27.865.006,18.945,0,14.159,0,9.374.285,4.586.043,4.065.017,3.45-.089,3.147.567L2.384.911l-.435.273L1.208,2.22c-.384.006-.657.105-.485.578A2.509,2.509,0,0,0,.491,4.413C-.158,4.919-.172,5.424.5,5.924q.4,1.116.8,2.229c-.143.387.048.623.365.8q-.028.954-.052,1.906a30.359,30.359,0,0,0-.054,6.709c.173,1.223-.142,2.595.7,3.7.007.132.013.264.02.4-.278.318-.075.643-.036.978.23,1.967,1.4,3.682,1.5,5.681a3.015,3.015,0,0,0-.294,1.747c.089,1.715.667,2.373,2.268,2.583l1.8-.1c.987.1,1.791-.551,2.733-.651a80.953,80.953,0,0,1,10.394-.581,5.33,5.33,0,0,0,2.778-.359l1.79.051c.118.158,1.035,3.63-1.673,4.3-2.617.239-1.12,3.678-3.736,3.425a1.562,1.562,0,0,0-1.869,1.071c-.626,1.8-1.728,3.36-2.433,5.132-1.423,3.578-.645,7,.321,10.456a1.14,1.14,0,0,0,.107.888,1.973,1.973,0,0,0,1.275,2.261l.235.254c1.363,1.9,3.371,1.421,5.25,1.419l1.195.014a7.058,7.058,0,0,0,4.241.142l.845-.019a1.147,1.147,0,0,0,.855.174c3.847-.1,7.693-.2,11.54-.311.429-.013.923.081,1.213-.4l9.216-.107c.29.27.653.2,1,.212,3.393.138,6.788.086,10.183.193,8.744.279,17.5.181,26.245.485,6.822.238,13.654.194,20.483.281,5.625.072,11.251.211,16.876.177.977-.006,1.966.078,2.96-.01,2.732-.241,5.476-.481,8.214-.47,3.253.013,6.5.406,9.764.24a7.977,7.977,0,0,1,1.619-.179,50.628,50.628,0,0,0,9.2.448c3.858-.06,7.708.139,11.564.108,6.116-.048,12.235.174,18.353.282a25.3,25.3,0,0,1,4.786.132,43.411,43.411,0,0,0,8.607.7,23.71,23.71,0,0,0,3.488-.459,32.8,32.8,0,0,0-12.647-2.192c-1.477,0-2.976.354-4.428-.063a8.452,8.452,0,0,0-4.844-.323,1.237,1.237,0,0,1-.742-.035c-2.035-.813-4.223-.377-6.25-.333a14.514,14.514,0,0,1-3.749-.281,4.842,4.842,0,0,0-2.358-.063c-.886.218-1.607-.157-2.622-.957a17.425,17.425,0,0,1,6.608-.263,5.227,5.227,0,0,0,2.358.056,5.536,5.536,0,0,1,2.373-.009c2.367.4,4.775.227,7.162.391a37.175,37.175,0,0,1,4.152.026c1.153.2,2.3.415,3.49.509a148.369,148.369,0,0,0,15.468.166c.4-.011.863.031,1.1-.348.435-.711,1.1-.58,1.734-.561,1.993.061,3.988.234,5.977.185,2.238-.055,4.469-.408,6.706-.439a45.125,45.125,0,0,1,7.459.3c2.013.309,4.05-.475,6.049.448.972.449,1.965-.691,1.6-1.839a1.81,1.81,0,0,1,.638-2.09c1.722-1.715,1.95-4.03,2.417-6.244a11.958,11.958,0,0,1,.941-4.927,11.858,11.858,0,0,0,1.207-6.184,5.465,5.465,0,0,0-.47-3.33,5.424,5.424,0,0,0,.146-2.068,35.948,35.948,0,0,0,1.005-9.046,3.8,3.8,0,0,1,.41-1.424,8.273,8.273,0,0,0,.346-4.256,13.31,13.31,0,0,0,.334-4.538" fill="#111"/>
    </g>
  </g>
</svg>
